waves/vcs/test_random_long_100_vcs.vcd
$date
	Fri Mar  6 15:38:57 2026
$end

$version
	Synopsys VCS version X-2025.06_Full64
$end

$timescale
	1ps
$end

$comment Csum: 1 c1f5fffbd89bf177 $end


$scope module testbench $end
$var reg 1 ! clk $end
$var reg 32 " dump_wave [31:0] $end

$scope begin unnamed$$_vcs_2 $end
$upscope $end


$scope begin unnamed$$_vcs_0 $end
$upscope $end


$scope begin unnamed$$_vcs_1 $end
$upscope $end


$scope begin unnamed$$_vcs_3 $end
$upscope $end


$scope module dut_if $end
$var reg 1 # rstn $end
$var reg 1 $ in $end
$var reg 1 % out $end
$var reg 1 & clk $end
$upscope $end


$scope module dut $end
$var wire 1 ' clk $end
$var wire 1 ( rstn $end
$var wire 1 ) in $end
$var wire 1 * out $end
$var reg 3 + cur_state [2:0] $end
$var reg 3 , next_state [2:0] $end
$upscope $end

$upscope $end

$enddefinitions $end

#0
$dumpvars
0!
b00000000000000000000000000000001 "
bxxx +
bxxx ,
0'
x*
0&
x(
x)
x$
x%
x#
$end
#5000
1!
1'
1&
#6000
0#
0(
0$
0)
#10000
0!
0'
0&
#15000
1!
1'
1&
b000 +
0*
0%
b000 ,
#20000
0!
0'
0&
#25000
1!
1'
1&
#30000
0!
0'
0&
#35000
1!
1'
1&
#40000
0!
0'
0&
#45000
1!
1'
1&
#46000
1#
1(
#50000
0!
0'
0&
#55000
1!
1'
1&
#60000
0!
0'
0&
#65000
1!
1'
1&
#70000
0!
0'
0&
#75000
1!
1'
1&
#76000
1$
1)
b001 ,
#80000
0!
0'
0&
#85000
1!
1'
1&
b001 +
#90000
0!
0'
0&
#95000
1!
1'
1&
#96000
0$
0)
b010 ,
#100000
0!
0'
0&
#105000
1!
1'
1&
b010 +
b000 ,
#110000
0!
0'
0&
#115000
1!
1'
1&
b000 +
#116000
1$
1)
b001 ,
#120000
0!
0'
0&
#125000
1!
1'
1&
b001 +
#130000
0!
0'
0&
#135000
1!
1'
1&
#140000
0!
0'
0&
#145000
1!
1'
1&
#150000
0!
0'
0&
#155000
1!
1'
1&
#160000
0!
0'
0&
#165000
1!
1'
1&
#166000
0$
0)
b010 ,
#170000
0!
0'
0&
#175000
1!
1'
1&
b010 +
b000 ,
#176000
1$
1)
b011 ,
#180000
0!
0'
0&
#185000
1!
1'
1&
b011 +
b100 ,
#190000
0!
0'
0&
#195000
1!
1'
1&
b100 +
1*
1%
b001 ,
#196000
0$
0)
b010 ,
#200000
0!
0'
0&
#205000
1!
1'
1&
b010 +
0*
0%
b000 ,
#206000
1$
1)
b011 ,
#210000
0!
0'
0&
#215000
1!
1'
1&
b011 +
b100 ,
#220000
0!
0'
0&
#225000
1!
1'
1&
b100 +
1*
1%
b001 ,
#226000
0$
0)
b010 ,
#230000
0!
0'
0&
#235000
1!
1'
1&
b010 +
0*
0%
b000 ,
#236000
1$
1)
b011 ,
#240000
0!
0'
0&
#245000
1!
1'
1&
b011 +
b100 ,
#250000
0!
0'
0&
#255000
1!
1'
1&
b100 +
1*
1%
b001 ,
#256000
0$
0)
b010 ,
#260000
0!
0'
0&
#265000
1!
1'
1&
b010 +
0*
0%
b000 ,
#266000
1$
1)
b011 ,
#270000
0!
0'
0&
#275000
1!
1'
1&
b011 +
b100 ,
#276000
0$
0)
b010 ,
#280000
0!
0'
0&
#285000
1!
1'
1&
b010 +
b000 ,
#286000
1$
1)
b011 ,
#290000
0!
0'
0&
#295000
1!
1'
1&
b011 +
b100 ,
#300000
0!
0'
0&
#305000
1!
1'
1&
b100 +
1*
1%
b001 ,
#306000
0$
0)
b010 ,
#310000
0!
0'
0&
#315000
1!
1'
1&
b010 +
0*
0%
b000 ,
#320000
0!
0'
0&
#325000
1!
1'
1&
b000 +
#330000
0!
0'
0&
#335000
1!
1'
1&
#336000
1$
1)
b001 ,
#340000
0!
0'
0&
#345000
1!
1'
1&
b001 +
#346000
0$
0)
b010 ,
#350000
0!
0'
0&
#355000
1!
1'
1&
b010 +
b000 ,
#360000
0!
0'
0&
#365000
1!
1'
1&
b000 +
#366000
1$
1)
b001 ,
#370000
0!
0'
0&
#375000
1!
1'
1&
b001 +
#376000
0$
0)
b010 ,
#380000
0!
0'
0&
#385000
1!
1'
1&
b010 +
b000 ,
#386000
1$
1)
b011 ,
#390000
0!
0'
0&
#395000
1!
1'
1&
b011 +
b100 ,
#400000
0!
0'
0&
#405000
1!
1'
1&
b100 +
1*
1%
b001 ,
#410000
0!
0'
0&
#415000
1!
1'
1&
b001 +
0*
0%
#416000
0$
0)
b010 ,
#420000
0!
0'
0&
#425000
1!
1'
1&
b010 +
b000 ,
#430000
0!
0'
0&
#435000
1!
1'
1&
b000 +
#440000
0!
0'
0&
#445000
1!
1'
1&
#446000
1$
1)
b001 ,
#450000
0!
0'
0&
#455000
1!
1'
1&
b001 +
#456000
0$
0)
b010 ,
#460000
0!
0'
0&
#465000
1!
1'
1&
b010 +
b000 ,
#470000
0!
0'
0&
#475000
1!
1'
1&
b000 +
#480000
0!
0'
0&
#485000
1!
1'
1&
#486000
1$
1)
b001 ,
#490000
0!
0'
0&
#495000
1!
1'
1&
b001 +
#496000
0$
0)
b010 ,
#500000
0!
0'
0&
#505000
1!
1'
1&
b010 +
b000 ,
#506000
1$
1)
b011 ,
#510000
0!
0'
0&
#515000
1!
1'
1&
b011 +
b100 ,
#520000
0!
0'
0&
#525000
1!
1'
1&
b100 +
1*
1%
b001 ,
#530000
0!
0'
0&
#535000
1!
1'
1&
b001 +
0*
0%
#536000
0$
0)
b010 ,
#540000
0!
0'
0&
#545000
1!
1'
1&
b010 +
b000 ,
#546000
1$
1)
b011 ,
#550000
0!
0'
0&
#555000
1!
1'
1&
b011 +
b100 ,
#556000
0$
0)
b010 ,
#560000
0!
0'
0&
#565000
1!
1'
1&
b010 +
b000 ,
#570000
0!
0'
0&
#575000
1!
1'
1&
b000 +
#576000
1$
1)
b001 ,
#580000
0!
0'
0&
#585000
1!
1'
1&
b001 +
#586000
0$
0)
b010 ,
#590000
0!
0'
0&
#595000
1!
1'
1&
b010 +
b000 ,
#596000
1$
1)
b011 ,
#600000
0!
0'
0&
#605000
1!
1'
1&
b011 +
b100 ,
#610000
0!
0'
0&
#615000
1!
1'
1&
b100 +
1*
1%
b001 ,
#616000
0$
0)
b010 ,
#620000
0!
0'
0&
#625000
1!
1'
1&
b010 +
0*
0%
b000 ,
#630000
0!
0'
0&
#635000
1!
1'
1&
b000 +
#636000
1$
1)
b001 ,
#640000
0!
0'
0&
#645000
1!
1'
1&
b001 +
#650000
0!
0'
0&
#655000
1!
1'
1&
#660000
0!
0'
0&
#665000
1!
1'
1&
#666000
0$
0)
b010 ,
#670000
0!
0'
0&
#675000
1!
1'
1&
b010 +
b000 ,
#680000
0!
0'
0&
#685000
1!
1'
1&
b000 +
#686000
1$
1)
b001 ,
#690000
0!
0'
0&
#695000
1!
1'
1&
b001 +
#696000
0$
0)
b010 ,
#700000
0!
0'
0&
#705000
1!
1'
1&
b010 +
b000 ,
#710000
0!
0'
0&
#715000
1!
1'
1&
b000 +
#720000
0!
0'
0&
#725000
1!
1'
1&
#726000
1$
1)
b001 ,
#730000
0!
0'
0&
#735000
1!
1'
1&
b001 +
#736000
0$
0)
b010 ,
#740000
0!
0'
0&
#745000
1!
1'
1&
b010 +
b000 ,
#750000
0!
0'
0&
#755000
1!
1'
1&
b000 +
#760000
0!
0'
0&
#765000
1!
1'
1&
#766000
1$
1)
b001 ,
#770000
0!
0'
0&
#775000
1!
1'
1&
b001 +
#780000
0!
0'
0&
#785000
1!
1'
1&
#786000
0$
0)
b010 ,
#790000
0!
0'
0&
#795000
1!
1'
1&
b010 +
b000 ,
#800000
0!
0'
0&
#805000
1!
1'
1&
b000 +
#810000
0!
0'
0&
#815000
1!
1'
1&
#816000
1$
1)
b001 ,
#820000
0!
0'
0&
#825000
1!
1'
1&
b001 +
#830000
0!
0'
0&
#835000
1!
1'
1&
#840000
0!
0'
0&
#845000
1!
1'
1&
#846000
0$
0)
b010 ,
#850000
0!
0'
0&
#855000
1!
1'
1&
b010 +
b000 ,
#860000
0!
0'
0&
#865000
1!
1'
1&
b000 +
#870000
0!
0'
0&
#875000
1!
1'
1&
#880000
0!
0'
0&
#885000
1!
1'
1&
#886000
1$
1)
b001 ,
#890000
0!
0'
0&
#895000
1!
1'
1&
b001 +
#900000
0!
0'
0&
#905000
1!
1'
1&
#910000
0!
0'
0&
#915000
1!
1'
1&
#920000
0!
0'
0&
#925000
1!
1'
1&
#930000
0!
0'
0&
#935000
1!
1'
1&
#936000
0$
0)
b010 ,
#940000
0!
0'
0&
#945000
1!
1'
1&
b010 +
b000 ,
#950000
0!
0'
0&
#955000
1!
1'
1&
b000 +
#960000
0!
0'
0&
#965000
1!
1'
1&
#966000
1$
1)
b001 ,
#970000
0!
0'
0&
#975000
1!
1'
1&
b001 +
#976000
0$
0)
b010 ,
#980000
0!
0'
0&
#985000
1!
1'
1&
b010 +
b000 ,
#990000
0!
0'
0&
#995000
1!
1'
1&
b000 +
#1000000
0!
0'
0&
#1005000
1!
1'
1&
#1006000
1$
1)
b001 ,
#1010000
0!
0'
0&
#1015000
1!
1'
1&
b001 +
#1016000
0$
0)
b010 ,
#1020000
0!
0'
0&
#1025000
1!
1'
1&
b010 +
b000 ,
#1030000
0!
0'
0&
#1035000
1!
1'
1&
b000 +
#1040000
0!
0'
0&
#1045000
1!
1'
1&
#1046000
1$
1)
b001 ,
#1050000
0!
0'
0&
#1055000
1!
1'
1&
b001 +
#1056000
0$
0)
b010 ,
#1060000
0!
0'
0&
#1065000
1!
1'
1&
b010 +
b000 ,
#1070000
0!
0'
0&
#1075000
1!
1'
1&
b000 +
#1080000
0!
0'
0&
#1085000
1!
1'
1&
#1086000
1$
1)
b001 ,
#1090000
0!
0'
0&
#1095000
1!
1'
1&
b001 +
#1096000
0$
0)
b010 ,
#1100000
0!
0'
0&
#1105000
1!
1'
1&
b010 +
b000 ,
#1106000
1$
1)
b011 ,
#1110000
0!
0'
0&
#1115000
1!
1'
1&
b011 +
b100 ,
#1120000
0!
0'
0&
#1125000
1!
1'
1&
b100 +
1*
1%
b001 ,
#1130000
0!
0'
0&
#1135000
1!
1'
1&
b001 +
0*
0%
#1136000
0$
0)
b010 ,
#1140000
0!
0'
0&
#1145000
1!
1'
1&
b010 +
b000 ,
#1150000
0!
0'
0&
#1155000
1!
1'
1&
b000 +
#1160000
0!
0'
0&
#1165000
1!
1'
1&
#1170000
0!
0'
0&
#1175000
1!
1'
1&
#1176000
1$
1)
b001 ,
#1180000
0!
0'
0&
#1185000
1!
1'
1&
b001 +
#1190000
0!
0'
0&
#1195000
1!
1'
1&
#1196000
0$
0)
b010 ,
#1200000
0!
0'
0&
#1205000
1!
1'
1&
b010 +
b000 ,
#1206000
1$
1)
b011 ,
#1210000
0!
0'
0&
#1215000
1!
1'
1&
b011 +
b100 ,
#1220000
0!
0'
0&
#1225000
1!
1'
1&
b100 +
1*
1%
b001 ,
#1230000
0!
0'
0&
#1235000
1!
1'
1&
b001 +
0*
0%
#1240000
0!
0'
0&
#1245000
1!
1'
1&
#1246000
0$
0)
b010 ,
#1250000
0!
0'
0&
#1255000
1!
1'
1&
b010 +
b000 ,
#1260000
0!
0'
0&
#1265000
1!
1'
1&
b000 +
#1266000
1$
1)
b001 ,
#1270000
0!
0'
0&
#1275000
1!
1'
1&
b001 +
#1280000
0!
0'
0&
#1285000
1!
1'
1&
#1286000
0$
0)
b010 ,
#1290000
0!
0'
0&
#1295000
1!
1'
1&
b010 +
b000 ,
#1296000
1$
1)
b011 ,
#1300000
0!
0'
0&
#1305000
1!
1'
1&
b011 +
b100 ,
#1306000
0$
0)
b010 ,
#1310000
0!
0'
0&
#1315000
1!
1'
1&
b010 +
b000 ,
#1316000
1$
1)
b011 ,
#1320000
0!
0'
0&
#1325000
1!
1'
1&
b011 +
b100 ,
#1326000
0$
0)
b010 ,
#1330000
0!
0'
0&
#1335000
1!
1'
1&
b010 +
b000 ,
#1340000
0!
0'
0&
#1345000
1!
1'
1&
b000 +
#1346000
1$
1)
b001 ,
#1350000
0!
0'
0&
#1355000
1!
1'
1&
b001 +
#1356000
0$
0)
b010 ,
#1360000
0!
0'
0&
#1365000
1!
1'
1&
b010 +
b000 ,
#1370000
0!
0'
0&
#1375000
1!
1'
1&
b000 +
#1380000
0!
0'
0&
#1385000
1!
1'
1&
#1390000
0!
0'
0&
#1395000
1!
1'
1&
#1396000
1$
1)
b001 ,
#1400000
0!
0'
0&
#1405000
1!
1'
1&
b001 +
#1406000
0$
0)
b010 ,
#1410000
0!
0'
0&
#1415000
1!
1'
1&
b010 +
b000 ,
#1416000
1$
1)
b011 ,
#1420000
0!
0'
0&
#1425000
1!
1'
1&
b011 +
b100 ,
#1426000
0$
0)
b010 ,
#1430000
0!
0'
0&
#1435000
1!
1'
1&
b010 +
b000 ,
#1436000
1$
1)
b011 ,
#1440000
0!
0'
0&
#1445000
1!
1'
1&
b011 +
b100 ,
#1446000
0$
0)
b010 ,
#1450000
0!
0'
0&
#1455000
1!
1'
1&
b010 +
b000 ,
#1460000
0!
0'
0&
#1465000
1!
1'
1&
b000 +
#1466000
1$
1)
b001 ,
#1470000
0!
0'
0&
#1475000
1!
1'
1&
b001 +
#1480000
0!
0'
0&
#1485000
1!
1'
1&
#1490000
0!
0'
0&
#1495000
1!
1'
1&
#1500000
0!
0'
0&
#1505000
1!
1'
1&
#1506000
0$
0)
b010 ,
#1510000
0!
0'
0&
#1515000
1!
1'
1&
b010 +
b000 ,
#1520000
0!
0'
0&
#1525000
1!
1'
1&
b000 +
#1526000
1$
1)
b001 ,
#1530000
0!
0'
0&
#1535000
1!
1'
1&
b001 +
#1536000
0$
0)
b010 ,
#1540000
0!
0'
0&
#1545000
1!
1'
1&
b010 +
b000 ,
#1546000
1$
1)
b011 ,
#1550000
0!
0'
0&
#1555000
1!
1'
1&
b011 +
b100 ,
#1560000
0!
0'
0&
#1565000
1!
1'
1&
b100 +
1*
1%
b001 ,
#1570000
0!
0'
0&
#1575000
1!
1'
1&
b001 +
0*
0%
#1576000
0$
0)
b010 ,
#1580000
0!
0'
0&
#1585000
1!
1'
1&
b010 +
b000 ,
#1586000
1$
1)
b011 ,
#1590000
0!
0'
0&
#1595000
1!
1'
1&
b011 +
b100 ,
#1596000
0$
0)
b010 ,
#1600000
0!
0'
0&
#1605000
1!
1'
1&
b010 +
b000 ,
#1606000
1$
1)
b011 ,
#1610000
0!
0'
0&
#1615000
1!
1'
1&
b011 +
b100 ,
#1620000
0!
0'
0&
#1625000
1!
1'
1&
b100 +
1*
1%
b001 ,
#1626000
0$
0)
b010 ,
#1630000
0!
0'
0&
#1635000
1!
1'
1&
b010 +
0*
0%
b000 ,
#1640000
0!
0'
0&
#1645000
1!
1'
1&
b000 +
#1646000
1$
1)
b001 ,
#1650000
0!
0'
0&
#1655000
1!
1'
1&
b001 +
#1656000
0$
0)
b010 ,
#1660000
0!
0'
0&
#1665000
1!
1'
1&
b010 +
b000 ,
#1666000
1$
1)
b011 ,
#1670000
0!
0'
0&
#1675000
1!
1'
1&
b011 +
b100 ,
#1680000
0!
0'
0&
#1685000
1!
1'
1&
b100 +
1*
1%
b001 ,
#1686000
0$
0)
b010 ,
#1690000
0!
0'
0&
#1695000
1!
1'
1&
b010 +
0*
0%
b000 ,
#1696000
1$
1)
b011 ,
#1700000
0!
0'
0&
#1705000
1!
1'
1&
b011 +
b100 ,
#1710000
0!
0'
0&
#1715000
1!
1'
1&
b100 +
1*
1%
b001 ,
#1720000
0!
0'
0&
#1725000
1!
1'
1&
b001 +
0*
0%
#1730000
0!
0'
0&
#1735000
1!
1'
1&
#1740000
0!
0'
0&
#1745000
1!
1'
1&
#1746000
0$
0)
b010 ,
#1750000
0!
0'
0&
#1755000
1!
1'
1&
b010 +
b000 ,
#1756000
1$
1)
b011 ,
#1760000
0!
0'
0&
#1765000
1!
1'
1&
b011 +
b100 ,
#1770000
0!
0'
0&
#1775000
1!
1'
1&
b100 +
1*
1%
b001 ,
#1776000
0$
0)
b010 ,
#1780000
0!
0'
0&
#1785000
1!
1'
1&
b010 +
0*
0%
b000 ,
#1786000
1$
1)
b011 ,
#1790000
0!
0'
0&
#1795000
1!
1'
1&
b011 +
b100 ,
#1800000
0!
0'
0&
#1805000
1!
1'
1&
b100 +
1*
1%
b001 ,
#1806000
0$
0)
b010 ,
#1810000
0!
0'
0&
#1815000
1!
1'
1&
b010 +
0*
0%
b000 ,
#1816000
1$
1)
b011 ,
#1820000
0!
0'
0&
#1825000
1!
1'
1&
b011 +
b100 ,
#1830000
0!
0'
0&
#1835000
1!
1'
1&
b100 +
1*
1%
b001 ,
#1836000
0$
0)
b010 ,
#1840000
0!
0'
0&
#1845000
1!
1'
1&
b010 +
0*
0%
b000 ,
#1846000
1$
1)
b011 ,
#1850000
0!
0'
0&
#1855000
1!
1'
1&
b011 +
b100 ,
#1860000
0!
0'
0&
#1865000
1!
1'
1&
b100 +
1*
1%
b001 ,
#1870000
0!
0'
0&
#1875000
1!
1'
1&
b001 +
0*
0%
#1880000
0!
0'
0&
#1885000
1!
1'
1&
#1886000
0$
0)
b010 ,
#1890000
0!
0'
0&
#1895000
1!
1'
1&
b010 +
b000 ,
#1900000
0!
0'
0&
#1905000
1!
1'
1&
b000 +
#1910000
0!
0'
0&
#1915000
1!
1'
1&
#1916000
1$
1)
b001 ,
#1920000
0!
0'
0&
#1925000
1!
1'
1&
b001 +
#1930000
0!
0'
0&
#1935000
1!
1'
1&
#1936000
0$
0)
b010 ,
#1940000
0!
0'
0&
#1945000
1!
1'
1&
b010 +
b000 ,
#1946000
1$
1)
b011 ,
#1950000
0!
0'
0&
#1955000
1!
1'
1&
b011 +
b100 ,
#1960000
0!
0'
0&
#1965000
1!
1'
1&
b100 +
1*
1%
b001 ,
#1970000
0!
0'
0&
#1975000
1!
1'
1&
b001 +
0*
0%
#1976000
0$
0)
b010 ,
#1980000
0!
0'
0&
#1985000
1!
1'
1&
b010 +
b000 ,
#1990000
0!
0'
0&
#1995000
1!
1'
1&
b000 +
#1996000
1$
1)
b001 ,
#2000000
0!
0'
0&
#2005000
1!
1'
1&
b001 +
#2006000
0$
0)
b010 ,
#2010000
0!
0'
0&
#2015000
1!
1'
1&
b010 +
b000 ,
#2020000
0!
0'
0&
#2025000
1!
1'
1&
b000 +
#2026000
1$
1)
b001 ,
#2030000
0!
0'
0&
#2035000
1!
1'
1&
b001 +
#2036000
0$
0)
b010 ,
#2040000
0!
0'
0&
#2045000
1!
1'
1&
b010 +
b000 ,
#2046000
1$
1)
b011 ,
#2050000
0!
0'
0&
#2055000
1!
1'
1&
b011 +
b100 ,
#2056000
0$
0)
b010 ,
#2060000
0!
0'
0&
#2065000
1!
1'
1&
b010 +
b000 ,
#2066000
1$
1)
b011 ,
#2070000
0!
0'
0&
#2075000
1!
1'
1&
b011 +
b100 ,
#2080000
0!
0'
0&
#2085000
1!
1'
1&
b100 +
1*
1%
b001 ,
#2090000
0!
0'
0&
#2095000
1!
1'
1&
b001 +
0*
0%
#2100000
0!
0'
0&
#2105000
1!
1'
1&
#2110000
0!
0'
0&
#2115000
1!
1'
1&
#2116000
0$
0)
b010 ,
#2120000
0!
0'
0&
#2125000
1!
1'
1&
b010 +
b000 ,
#2126000
1$
1)
b011 ,
#2130000
0!
0'
0&
#2135000
1!
1'
1&
b011 +
b100 ,
#2140000
0!
0'
0&
#2145000
1!
1'
1&
b100 +
1*
1%
b001 ,
#2150000
0!
0'
0&
#2155000
1!
1'
1&
b001 +
0*
0%
#2156000
0$
0)
b010 ,
#2160000
0!
0'
0&
#2165000
1!
1'
1&
b010 +
b000 ,
#2170000
0!
0'
0&
#2175000
1!
1'
1&
b000 +
#2180000
0!
0'
0&
#2185000
1!
1'
1&
#2186000
1$
1)
b001 ,
#2190000
0!
0'
0&
#2195000
1!
1'
1&
b001 +
#2196000
0$
0)
b010 ,
#2200000
0!
0'
0&
#2205000
1!
1'
1&
b010 +
b000 ,
#2210000
0!
0'
0&
#2215000
1!
1'
1&
b000 +
#2220000
0!
0'
0&
#2225000
1!
1'
1&
#2230000
0!
0'
0&
#2235000
1!
1'
1&
#2240000
0!
0'
0&
#2245000
1!
1'
1&
#2250000
0!
0'
0&
#2255000
1!
1'
1&
#2256000
1$
1)
b001 ,
#2260000
0!
0'
0&
#2265000
1!
1'
1&
b001 +
#2266000
0$
0)
b010 ,
#2270000
0!
0'
0&
#2275000
1!
1'
1&
b010 +
b000 ,
#2276000
1$
1)
b011 ,
#2280000
0!
0'
0&
#2285000
1!
1'
1&
b011 +
b100 ,
#2286000
0$
0)
b010 ,
#2290000
0!
0'
0&
#2295000
1!
1'
1&
b010 +
b000 ,
#2300000
0!
0'
0&
#2305000
1!
1'
1&
b000 +
#2306000
1$
1)
b001 ,
#2310000
0!
0'
0&
#2315000
1!
1'
1&
b001 +
#2316000
0$
0)
b010 ,
#2320000
0!
0'
0&
#2325000
1!
1'
1&
b010 +
b000 ,
#2326000
1$
1)
b011 ,
#2330000
0!
0'
0&
#2335000
1!
1'
1&
b011 +
b100 ,
#2336000
0$
0)
b010 ,
#2340000
0!
0'
0&
#2345000
1!
1'
1&
b010 +
b000 ,
#2346000
1$
1)
b011 ,
#2350000
0!
0'
0&
#2355000
1!
1'
1&
b011 +
b100 ,
#2360000
0!
0'
0&
#2365000
1!
1'
1&
b100 +
1*
1%
b001 ,
#2366000
0$
0)
b010 ,
#2370000
0!
0'
0&
#2375000
1!
1'
1&
b010 +
0*
0%
b000 ,
#2380000
0!
0'
0&
#2385000
1!
1'
1&
b000 +
#2386000
1$
1)
b001 ,
#2390000
0!
0'
0&
#2395000
1!
1'
1&
b001 +
#2396000
0$
0)
b010 ,
#2400000
0!
0'
0&
#2405000
1!
1'
1&
b010 +
b000 ,
#2410000
0!
0'
0&
#2415000
1!
1'
1&
b000 +
#2420000
0!
0'
0&
#2425000
1!
1'
1&
#2430000
0!
0'
0&
#2435000
1!
1'
1&
#2436000
1$
1)
b001 ,
#2440000
0!
0'
0&
#2445000
1!
1'
1&
b001 +
#2450000
0!
0'
0&
#2455000
1!
1'
1&
#2456000
0$
0)
b010 ,
#2460000
0!
0'
0&
#2465000
1!
1'
1&
b010 +
b000 ,
#2466000
1$
1)
b011 ,
#2470000
0!
0'
0&
#2475000
1!
1'
1&
b011 +
b100 ,
#2476000
0$
0)
b010 ,
#2480000
0!
0'
0&
#2485000
1!
1'
1&
b010 +
b000 ,
#2486000
1$
1)
b011 ,
#2490000
0!
0'
0&
#2495000
1!
1'
1&
b011 +
b100 ,
#2500000
0!
0'
0&
#2505000
1!
1'
1&
b100 +
1*
1%
b001 ,
#2506000
0$
0)
b010 ,
#2510000
0!
0'
0&
#2515000
1!
1'
1&
b010 +
0*
0%
b000 ,
#2520000
0!
0'
0&
#2525000
1!
1'
1&
b000 +
#2530000
0!
0'
0&
#2535000
1!
1'
1&
#2536000
1$
1)
b001 ,
#2540000
0!
0'
0&
#2545000
1!
1'
1&
b001 +
#2550000
0!
0'
0&
#2555000
1!
1'
1&
#2560000
0!
0'
0&
#2565000
1!
1'
1&
#2566000
0$
0)
b010 ,
#2570000
0!
0'
0&
#2575000
1!
1'
1&
b010 +
b000 ,
#2576000
1$
1)
b011 ,
#2580000
0!
0'
0&
#2585000
1!
1'
1&
b011 +
b100 ,
#2590000
0!
0'
0&
#2595000
1!
1'
1&
b100 +
1*
1%
b001 ,
#2600000
0!
0'
0&
#2605000
1!
1'
1&
b001 +
0*
0%
#2606000
0$
0)
b010 ,
#2610000
0!
0'
0&
#2615000
1!
1'
1&
b010 +
b000 ,
#2620000
0!
0'
0&
#2625000
1!
1'
1&
b000 +
#2626000
1$
1)
b001 ,
#2630000
0!
0'
0&
#2635000
1!
1'
1&
b001 +
#2640000
0!
0'
0&
#2645000
1!
1'
1&
#2650000
0!
0'
0&
#2655000
1!
1'
1&
#2656000
0$
0)
b010 ,
#2660000
0!
0'
0&
#2665000
1!
1'
1&
b010 +
b000 ,
#2670000
0!
0'
0&
#2675000
1!
1'
1&
b000 +
#2680000
0!
0'
0&
#2685000
1!
1'
1&
#2686000
1$
1)
b001 ,
#2690000
0!
0'
0&
#2695000
1!
1'
1&
b001 +
#2696000
0$
0)
b010 ,
#2700000
0!
0'
0&
#2705000
1!
1'
1&
b010 +
b000 ,
#2706000
1$
1)
b011 ,
#2710000
0!
0'
0&
#2715000
1!
1'
1&
b011 +
b100 ,
#2716000
0$
0)
b010 ,
#2720000
0!
0'
0&
#2725000
1!
1'
1&
b010 +
b000 ,
#2730000
0!
0'
0&
#2735000
1!
1'
1&
b000 +
#2740000
0!
0'
0&
#2745000
1!
1'
1&
#2750000
0!
0'
0&
#2755000
1!
1'
1&
#2756000
1$
1)
b001 ,
#2760000
0!
0'
0&
#2765000
1!
1'
1&
b001 +
#2766000
0$
0)
b010 ,
#2770000
0!
0'
0&
#2775000
1!
1'
1&
b010 +
b000 ,
#2780000
0!
0'
0&
#2785000
1!
1'
1&
b000 +
#2786000
1$
1)
b001 ,
#2790000
0!
0'
0&
#2795000
1!
1'
1&
b001 +
#2800000
0!
0'
0&
#2805000
1!
1'
1&
#2810000
0!
0'
0&
#2815000
1!
1'
1&
#2820000
0!
0'
0&
#2825000
1!
1'
1&
#2830000
0!
0'
0&
#2835000
1!
1'
1&
#2840000
0!
0'
0&
#2845000
1!
1'
1&
#2846000
0$
0)
b010 ,
#2850000
0!
0'
0&
#2855000
1!
1'
1&
b010 +
b000 ,
#2860000
0!
0'
0&
#2865000
1!
1'
1&
b000 +
#2866000
1$
1)
b001 ,
#2870000
0!
0'
0&
#2875000
1!
1'
1&
b001 +
#2876000
0$
0)
b010 ,
#2880000
0!
0'
0&
#2885000
1!
1'
1&
b010 +
b000 ,
#2890000
0!
0'
0&
#2895000
1!
1'
1&
b000 +
#2896000
1$
1)
b001 ,
#2900000
0!
0'
0&
#2905000
1!
1'
1&
b001 +
#2906000
0$
0)
b010 ,
#2910000
0!
0'
0&
#2915000
1!
1'
1&
b010 +
b000 ,
#2916000
1$
1)
b011 ,
#2920000
0!
0'
0&
#2925000
1!
1'
1&
b011 +
b100 ,
#2926000
0$
0)
b010 ,
#2930000
0!
0'
0&
#2935000
1!
1'
1&
b010 +
b000 ,
#2936000
1$
1)
b011 ,
#2940000
0!
0'
0&
#2945000
1!
1'
1&
b011 +
b100 ,
#2950000
0!
0'
0&
#2955000
1!
1'
1&
b100 +
1*
1%
b001 ,
#2960000
0!
0'
0&
#2965000
1!
1'
1&
b001 +
0*
0%
#2970000
0!
0'
0&
#2975000
1!
1'
1&
#2980000
0!
0'
0&
#2985000
1!
1'
1&
#2986000
0$
0)
b010 ,
#2990000
0!
0'
0&
#2995000
1!
1'
1&
b010 +
b000 ,
#3000000
0!
0'
0&
#3005000
1!
1'
1&
b000 +
#3006000
1$
1)
b001 ,
#3010000
0!
0'
0&
#3015000
1!
1'
1&
b001 +
#3020000
0!
0'
0&
#3025000
1!
1'
1&
#3030000
0!
0'
0&
#3035000
1!
1'
1&
#3040000
0!
0'
0&
#3045000
1!
1'
1&
#3046000
0$
0)
b010 ,
#3050000
0!
0'
0&
#3055000
1!
1'
1&
b010 +
b000 ,
#3060000
0!
0'
0&
#3065000
1!
1'
1&
b000 +
#3070000
0!
0'
0&
#3075000
1!
1'
1&
#3080000
0!
0'
0&
#3085000
1!
1'
1&
#3086000
1$
1)
b001 ,
#3090000
0!
0'
0&
#3095000
1!
1'
1&
b001 +
#3096000
0$
0)
b010 ,
#3100000
0!
0'
0&
#3105000
1!
1'
1&
b010 +
b000 ,
#3106000
1$
1)
b011 ,
#3110000
0!
0'
0&
#3115000
1!
1'
1&
b011 +
b100 ,
#3116000
0$
0)
b010 ,
#3120000
0!
0'
0&
#3125000
1!
1'
1&
b010 +
b000 ,
#3130000
0!
0'
0&
#3135000
1!
1'
1&
b000 +
#3140000
0!
0'
0&
#3145000
1!
1'
1&
#3146000
1$
1)
b001 ,
#3150000
0!
0'
0&
#3155000
1!
1'
1&
b001 +
#3156000
0$
0)
b010 ,
#3160000
0!
0'
0&
#3165000
1!
1'
1&
b010 +
b000 ,
#3166000
1$
1)
b011 ,
#3170000
0!
0'
0&
#3175000
1!
1'
1&
b011 +
b100 ,
#3180000
0!
0'
0&
#3185000
1!
1'
1&
b100 +
1*
1%
b001 ,
#3190000
0!
0'
0&
#3195000
1!
1'
1&
b001 +
0*
0%
#3196000
0$
0)
b010 ,
#3200000
0!
0'
0&
#3205000
1!
1'
1&
b010 +
b000 ,
#3206000
1$
1)
b011 ,
#3210000
0!
0'
0&
#3215000
1!
1'
1&
b011 +
b100 ,
#3220000
0!
0'
0&
#3225000
1!
1'
1&
b100 +
1*
1%
b001 ,
#3226000
0$
0)
b010 ,
#3230000
0!
0'
0&
#3235000
1!
1'
1&
b010 +
0*
0%
b000 ,
#3236000
1$
1)
b011 ,
#3240000
0!
0'
0&
#3245000
1!
1'
1&
b011 +
b100 ,
#3246000
0$
0)
b010 ,
#3250000
0!
0'
0&
#3255000
1!
1'
1&
b010 +
b000 ,
#3256000
1$
1)
b011 ,
#3260000
0!
0'
0&
#3265000
1!
1'
1&
b011 +
b100 ,
#3270000
0!
0'
0&
#3275000
1!
1'
1&
b100 +
1*
1%
b001 ,
#3280000
0!
0'
0&
#3285000
1!
1'
1&
b001 +
0*
0%
#3290000
0!
0'
0&
#3295000
1!
1'
1&
#3300000
0!
0'
0&
#3305000
1!
1'
1&
#3306000
0$
0)
b010 ,
#3310000
0!
0'
0&
#3315000
1!
1'
1&
b010 +
b000 ,
#3316000
1$
1)
b011 ,
#3320000
0!
0'
0&
