logs/test_random_long_100_vcs.log
Info: [VCS_SAVE_RESTORE_INFO] ASLR (Address Space Layout Randomization) is detected on the machine. To enable $save functionality, ASLR will be switched off and simv re-executed.
Please use '-no_save' simv switch to avoid re-execution or '-suppress=ASLR_DETECTED_INFO' to suppress this message.
Chronologic VCS simulator copyright 1991-2025
Contains Synopsys proprietary information.
Compiler version X-2025.06_Full64; Runtime version X-2025.06_Full64;  Mar  6 15:38 2026
----------------------------------------------------------------
UVM-1.1d.Synopsys
(C) 2007-2013 Mentor Graphics Corporation
(C) 2007-2013 Cadence Design Systems, Inc.
(C) 2006-2013 Synopsys, Inc.
(C) 2011-2013 Cypress Semiconductor Corp.
----------------------------------------------------------------

  ***********       IMPORTANT RELEASE NOTES         ************

  You are using a version of the UVM library that has been compiled
  with `UVM_NO_DEPRECATED undefined.
  See http://www.eda.org/svdb/view.php?id=3313 for more details.

  You are using a version of the UVM library that has been compiled
  with `UVM_OBJECT_MUST_HAVE_CONSTRUCTOR undefined.
  See http://www.eda.org/svdb/view.php?id=3770 for more details.

      (Specify +UVM_NO_RELNOTES to turn off this notice)

UVM_INFO ../tb/testbench.sv(55) @ 0: reporter [TB] Waveform (VCD): /home/danhht/workspace/uvm-1011-detector/sim/../waves/vcs/test_random_long_100_vcs.vcd
*Verdi* Loading libsscore_vcs202506.so
FSDB Dumper for VCS, Release Verdi_X-2025.06, Linux x86_64/64bit, 05/31/2025
(C) 1996 - 2025 by Synopsys, Inc.
*Verdi* : Create FSDB file '/home/danhht/workspace/uvm-1011-detector/sim/../waves/vcs/test_random_long_100_vcs.fsdb'
*Verdi* : Begin traversing the scope (testbench), layer (0).
*Verdi* : End of traversing.
UVM_INFO ../tb/testbench.sv(60) @ 0: reporter [TB] Waveform (FSDB): /home/danhht/workspace/uvm-1011-detector/sim/../waves/vcs/test_random_long_100_vcs.fsdb
UVM_INFO @ 0: reporter [RNTST] Running test test_random_long...
UVM_INFO ../tests/base_test.sv(32) @ 0: uvm_test_top [TEST_CFG] Test=test_random_long OVERLAP_EN=1 NUM_CYCLES=2000
UVM_INFO @ 0: reporter [UVMTOP] UVM testbench topology:
--------------------------------------------------------------
Name                       Type                    Size  Value
--------------------------------------------------------------
uvm_test_top               test_random_long        -     @461 
  env                      det_env                 -     @469 
    agent                  det_agent               -     @477 
      drv                  det_driver              -     @628 
        rsp_port           uvm_analysis_port       -     @645 
        seq_item_port      uvm_seq_item_pull_port  -     @636 
      mon                  det_monitor             -     @497 
        ap                 uvm_analysis_port       -     @655 
      seqr                 uvm_sequencer           -     @505 
        rsp_export         uvm_analysis_export     -     @513 
        seq_item_export    uvm_seq_item_pull_imp   -     @619 
        arbitration_queue  array                   0     -    
        lock_queue         array                   0     -    
        num_last_reqs      integral                32    'd1  
        num_last_rsps      integral                32    'd1  
    scoreboard             det_scoreboard          -     @485 
      analysis_export      uvm_analysis_imp        -     @670 
--------------------------------------------------------------

UVM_INFO /home/danhht/workspace/uvm-1011-detector/sim/../tb/driver.sv(34) @ 45000: uvm_test_top.env.agent.drv [DRV] Initial 5-cycle reset complete
UVM_INFO /home/danhht/workspace/uvm-1011-detector/sim/../tb/scoreboard.sv(116) @ 205000: uvm_test_top.env.scoreboard [SB_DETECT] DETECTION #1 @ cycle=21 | history[7:0]=11110110 | din=0
UVM_INFO /home/danhht/workspace/uvm-1011-detector/sim/../tb/scoreboard.sv(116) @ 235000: uvm_test_top.env.scoreboard [SB_DETECT] DETECTION #2 @ cycle=24 | history[7:0]=10110110 | din=0
UVM_INFO /home/danhht/workspace/uvm-1011-detector/sim/../tb/scoreboard.sv(116) @ 265000: uvm_test_top.env.scoreboard [SB_DETECT] DETECTION #3 @ cycle=27 | history[7:0]=10110110 | din=0
UVM_INFO /home/danhht/workspace/uvm-1011-detector/sim/../tb/scoreboard.sv(116) @ 315000: uvm_test_top.env.scoreboard [SB_DETECT] DETECTION #4 @ cycle=32 | history[7:0]=11010110 | din=0
UVM_INFO /home/danhht/workspace/uvm-1011-detector/sim/../tb/scoreboard.sv(116) @ 415000: uvm_test_top.env.scoreboard [SB_DETECT] DETECTION #5 @ cycle=42 | history[7:0]=10010111 | din=1
UVM_INFO /home/danhht/workspace/uvm-1011-detector/sim/../tb/scoreboard.sv(116) @ 535000: uvm_test_top.env.scoreboard [SB_DETECT] DETECTION #6 @ cycle=54 | history[7:0]=00010111 | din=1
UVM_INFO /home/danhht/workspace/uvm-1011-detector/sim/../tb/scoreboard.sv(116) @ 625000: uvm_test_top.env.scoreboard [SB_DETECT] DETECTION #7 @ cycle=63 | history[7:0]=10010110 | din=0
UVM_INFO /home/danhht/workspace/uvm-1011-detector/sim/../tb/scoreboard.sv(116) @ 1135000: uvm_test_top.env.scoreboard [SB_DETECT] DETECTION #8 @ cycle=114 | history[7:0]=00010111 | din=1
UVM_INFO /home/danhht/workspace/uvm-1011-detector/sim/../tb/scoreboard.sv(116) @ 1235000: uvm_test_top.env.scoreboard [SB_DETECT] DETECTION #9 @ cycle=124 | history[7:0]=00110111 | din=1
UVM_INFO /home/danhht/workspace/uvm-1011-detector/sim/../tb/scoreboard.sv(116) @ 1575000: uvm_test_top.env.scoreboard [SB_DETECT] DETECTION #10 @ cycle=158 | history[7:0]=10010111 | din=1
UVM_INFO /home/danhht/workspace/uvm-1011-detector/sim/../tb/scoreboard.sv(116) @ 1635000: uvm_test_top.env.scoreboard [SB_DETECT] DETECTION #11 @ cycle=164 | history[7:0]=11010110 | din=0
UVM_INFO /home/danhht/workspace/uvm-1011-detector/sim/../tb/scoreboard.sv(116) @ 1695000: uvm_test_top.env.scoreboard [SB_DETECT] DETECTION #12 @ cycle=170 | history[7:0]=10010110 | din=0
UVM_INFO /home/danhht/workspace/uvm-1011-detector/sim/../tb/scoreboard.sv(116) @ 1725000: uvm_test_top.env.scoreboard [SB_DETECT] DETECTION #13 @ cycle=173 | history[7:0]=10110111 | din=1
UVM_INFO /home/danhht/workspace/uvm-1011-detector/sim/../tb/scoreboard.sv(116) @ 1785000: uvm_test_top.env.scoreboard [SB_DETECT] DETECTION #14 @ cycle=179 | history[7:0]=11110110 | din=0
UVM_INFO /home/danhht/workspace/uvm-1011-detector/sim/../tb/scoreboard.sv(116) @ 1815000: uvm_test_top.env.scoreboard [SB_DETECT] DETECTION #15 @ cycle=182 | history[7:0]=10110110 | din=0
UVM_INFO /home/danhht/workspace/uvm-1011-detector/sim/../tb/scoreboard.sv(116) @ 1845000: uvm_test_top.env.scoreboard [SB_DETECT] DETECTION #16 @ cycle=185 | history[7:0]=10110110 | din=0
UVM_INFO /home/danhht/workspace/uvm-1011-detector/sim/../tb/scoreboard.sv(116) @ 1875000: uvm_test_top.env.scoreboard [SB_DETECT] DETECTION #17 @ cycle=188 | history[7:0]=10110111 | din=1
UVM_INFO /home/danhht/workspace/uvm-1011-detector/sim/../tb/scoreboard.sv(116) @ 1975000: uvm_test_top.env.scoreboard [SB_DETECT] DETECTION #18 @ cycle=198 | history[7:0]=00110111 | din=1
UVM_INFO /home/danhht/workspace/uvm-1011-detector/sim/../tb/scoreboard.sv(116) @ 2095000: uvm_test_top.env.scoreboard [SB_DETECT] DETECTION #19 @ cycle=210 | history[7:0]=01010111 | din=1
UVM_INFO /home/danhht/workspace/uvm-1011-detector/sim/../tb/scoreboard.sv(116) @ 2155000: uvm_test_top.env.scoreboard [SB_DETECT] DETECTION #20 @ cycle=216 | history[7:0]=11110111 | din=1
UVM_INFO /home/danhht/workspace/uvm-1011-detector/sim/../tb/scoreboard.sv(116) @ 2375000: uvm_test_top.env.scoreboard [SB_DETECT] DETECTION #21 @ cycle=238 | history[7:0]=01010110 | din=0
UVM_INFO /home/danhht/workspace/uvm-1011-detector/sim/../tb/scoreboard.sv(116) @ 2515000: uvm_test_top.env.scoreboard [SB_DETECT] DETECTION #22 @ cycle=252 | history[7:0]=11010110 | din=0
UVM_INFO /home/danhht/workspace/uvm-1011-detector/sim/../tb/scoreboard.sv(116) @ 2605000: uvm_test_top.env.scoreboard [SB_DETECT] DETECTION #23 @ cycle=261 | history[7:0]=01110111 | din=1
UVM_INFO /home/danhht/workspace/uvm-1011-detector/sim/../tb/scoreboard.sv(116) @ 2965000: uvm_test_top.env.scoreboard [SB_DETECT] DETECTION #24 @ cycle=297 | history[7:0]=01010111 | din=1
UVM_INFO /home/danhht/workspace/uvm-1011-detector/sim/../tb/scoreboard.sv(116) @ 3195000: uvm_test_top.env.scoreboard [SB_DETECT] DETECTION #25 @ cycle=320 | history[7:0]=00010111 | din=1
UVM_INFO /home/danhht/workspace/uvm-1011-detector/sim/../tb/scoreboard.sv(116) @ 3235000: uvm_test_top.env.scoreboard [SB_DETECT] DETECTION #26 @ cycle=324 | history[7:0]=01110110 | din=0
UVM_INFO /home/danhht/workspace/uvm-1011-detector/sim/../tb/scoreboard.sv(116) @ 3285000: uvm_test_top.env.scoreboard [SB_DETECT] DETECTION #27 @ cycle=329 | history[7:0]=11010111 | din=1
UVM_INFO /home/danhht/workspace/uvm-1011-detector/sim/../tb/scoreboard.sv(116) @ 3345000: uvm_test_top.env.scoreboard [SB_DETECT] DETECTION #28 @ cycle=335 | history[7:0]=11110111 | din=1
UVM_INFO /home/danhht/workspace/uvm-1011-detector/sim/../tb/scoreboard.sv(116) @ 3395000: uvm_test_top.env.scoreboard [SB_DETECT] DETECTION #29 @ cycle=340 | history[7:0]=11110111 | din=1
UVM_INFO /home/danhht/workspace/uvm-1011-detector/sim/../tb/scoreboard.sv(116) @ 3495000: uvm_test_top.env.scoreboard [SB_DETECT] DETECTION #30 @ cycle=350 | history[7:0]=00010110 | din=0
UVM_INFO /home/danhht/workspace/uvm-1011-detector/sim/../tb/scoreboard.sv(116) @ 3945000: uvm_test_top.env.scoreboard [SB_DETECT] DETECTION #31 @ cycle=395 | history[7:0]=01010111 | din=1
UVM_INFO /home/danhht/workspace/uvm-1011-detector/sim/../tb/scoreboard.sv(116) @ 3985000: uvm_test_top.env.scoreboard [SB_DETECT] DETECTION #32 @ cycle=399 | history[7:0]=01110110 | din=0
UVM_INFO /home/danhht/workspace/uvm-1011-detector/sim/../tb/scoreboard.sv(116) @ 4045000: uvm_test_top.env.scoreboard [SB_DETECT] DETECTION #33 @ cycle=405 | history[7:0]=10010111 | din=1
UVM_INFO /home/danhht/workspace/uvm-1011-detector/sim/../tb/scoreboard.sv(116) @ 4155000: uvm_test_top.env.scoreboard [SB_DETECT] DETECTION #34 @ cycle=416 | history[7:0]=01010111 | din=1
UVM_INFO /home/danhht/workspace/uvm-1011-detector/sim/../tb/scoreboard.sv(116) @ 4305000: uvm_test_top.env.scoreboard [SB_DETECT] DETECTION #35 @ cycle=431 | history[7:0]=10010110 | din=0
UVM_INFO /home/danhht/workspace/uvm-1011-detector/sim/../tb/scoreboard.sv(116) @ 4465000: uvm_test_top.env.scoreboard [SB_DETECT] DETECTION #36 @ cycle=447 | history[7:0]=10010111 | din=1
UVM_INFO /home/danhht/workspace/uvm-1011-detector/sim/../tb/scoreboard.sv(116) @ 4535000: uvm_test_top.env.scoreboard [SB_DETECT] DETECTION #37 @ cycle=454 | history[7:0]=10010111 | din=1
UVM_INFO /home/danhht/workspace/uvm-1011-detector/sim/../tb/scoreboard.sv(116) @ 4575000: uvm_test_top.env.scoreboard [SB_DETECT] DETECTION #38 @ cycle=458 | history[7:0]=01110111 | din=1
UVM_INFO /home/danhht/workspace/uvm-1011-detector/sim/../tb/scoreboard.sv(116) @ 4635000: uvm_test_top.env.scoreboard [SB_DETECT] DETECTION #39 @ cycle=464 | history[7:0]=11110110 | din=0
UVM_INFO /home/danhht/workspace/uvm-1011-detector/sim/../tb/scoreboard.sv(116) @ 4945000: uvm_test_top.env.scoreboard [SB_DETECT] DETECTION #40 @ cycle=495 | history[7:0]=11110111 | din=1
UVM_INFO /home/danhht/workspace/uvm-1011-detector/sim/../tb/scoreboard.sv(116) @ 5205000: uvm_test_top.env.scoreboard [SB_DETECT] DETECTION #41 @ cycle=521 | history[7:0]=00110111 | din=1
UVM_INFO /home/danhht/workspace/uvm-1011-detector/sim/../tb/scoreboard.sv(116) @ 5345000: uvm_test_top.env.scoreboard [SB_DETECT] DETECTION #42 @ cycle=535 | history[7:0]=00110111 | din=1
UVM_INFO /home/danhht/workspace/uvm-1011-detector/sim/../tb/scoreboard.sv(116) @ 5405000: uvm_test_top.env.scoreboard [SB_DETECT] DETECTION #43 @ cycle=541 | history[7:0]=11110111 | din=1
UVM_INFO /home/danhht/workspace/uvm-1011-detector/sim/../tb/scoreboard.sv(116) @ 5465000: uvm_test_top.env.scoreboard [SB_DETECT] DETECTION #44 @ cycle=547 | history[7:0]=11010110 | din=0
UVM_INFO /home/danhht/workspace/uvm-1011-detector/sim/../tb/scoreboard.sv(116) @ 5795000: uvm_test_top.env.scoreboard [SB_DETECT] DETECTION #45 @ cycle=580 | history[7:0]=11010111 | din=1
UVM_INFO /home/danhht/workspace/uvm-1011-detector/sim/../tb/scoreboard.sv(116) @ 6195000: uvm_test_top.env.scoreboard [SB_DETECT] DETECTION #46 @ cycle=620 | history[7:0]=01010110 | din=0
UVM_INFO /home/danhht/workspace/uvm-1011-detector/sim/../tb/scoreboard.sv(116) @ 6245000: uvm_test_top.env.scoreboard [SB_DETECT] DETECTION #47 @ cycle=625 | history[7:0]=11010110 | din=0
UVM_INFO /home/danhht/workspace/uvm-1011-detector/sim/../tb/scoreboard.sv(116) @ 6275000: uvm_test_top.env.scoreboard [SB_DETECT] DETECTION #48 @ cycle=628 | history[7:0]=10110111 | din=1
UVM_INFO /home/danhht/workspace/uvm-1011-detector/sim/../tb/scoreboard.sv(116) @ 6385000: uvm_test_top.env.scoreboard [SB_DETECT] DETECTION #49 @ cycle=639 | history[7:0]=00110111 | din=1
UVM_INFO /home/danhht/workspace/uvm-1011-detector/sim/../tb/scoreboard.sv(116) @ 6435000: uvm_test_top.env.scoreboard [SB_DETECT] DETECTION #50 @ cycle=644 | history[7:0]=11110110 | din=0
UVM_INFO /home/danhht/workspace/uvm-1011-detector/sim/../tb/scoreboard.sv(116) @ 6465000: uvm_test_top.env.scoreboard [SB_DETECT] DETECTION #51 @ cycle=647 | history[7:0]=10110111 | din=1
UVM_INFO /home/danhht/workspace/uvm-1011-detector/sim/../tb/scoreboard.sv(116) @ 6575000: uvm_test_top.env.scoreboard [SB_DETECT] DETECTION #52 @ cycle=658 | history[7:0]=11010111 | din=1
UVM_INFO /home/danhht/workspace/uvm-1011-detector/sim/../tb/scoreboard.sv(116) @ 6685000: uvm_test_top.env.scoreboard [SB_DETECT] DETECTION #53 @ cycle=669 | history[7:0]=01010110 | din=0
UVM_INFO /home/danhht/workspace/uvm-1011-detector/sim/../tb/scoreboard.sv(116) @ 6855000: uvm_test_top.env.scoreboard [SB_DETECT] DETECTION #54 @ cycle=686 | history[7:0]=10010111 | din=1
UVM_INFO /home/danhht/workspace/uvm-1011-detector/sim/../tb/scoreboard.sv(116) @ 6985000: uvm_test_top.env.scoreboard [SB_DETECT] DETECTION #55 @ cycle=699 | history[7:0]=11010110 | din=0
UVM_INFO /home/danhht/workspace/uvm-1011-detector/sim/../tb/scoreboard.sv(116) @ 7075000: uvm_test_top.env.scoreboard [SB_DETECT] DETECTION #56 @ cycle=708 | history[7:0]=00110111 | din=1
UVM_INFO /home/danhht/workspace/uvm-1011-detector/sim/../tb/scoreboard.sv(116) @ 7225000: uvm_test_top.env.scoreboard [SB_DETECT] DETECTION #57 @ cycle=723 | history[7:0]=11110111 | din=1
UVM_INFO /home/danhht/workspace/uvm-1011-detector/sim/../tb/scoreboard.sv(116) @ 7355000: uvm_test_top.env.scoreboard [SB_DETECT] DETECTION #58 @ cycle=736 | history[7:0]=11010111 | din=1
UVM_INFO /home/danhht/workspace/uvm-1011-detector/sim/../tb/scoreboard.sv(116) @ 7535000: uvm_test_top.env.scoreboard [SB_DETECT] DETECTION #59 @ cycle=754 | history[7:0]=00010111 | din=1
UVM_INFO /home/danhht/workspace/uvm-1011-detector/sim/../tb/scoreboard.sv(116) @ 7735000: uvm_test_top.env.scoreboard [SB_DETECT] DETECTION #60 @ cycle=774 | history[7:0]=00010111 | din=1
UVM_INFO /home/danhht/workspace/uvm-1011-detector/sim/../tb/scoreboard.sv(116) @ 7925000: uvm_test_top.env.scoreboard [SB_DETECT] DETECTION #61 @ cycle=793 | history[7:0]=01110111 | din=1
UVM_INFO /home/danhht/workspace/uvm-1011-detector/sim/../tb/scoreboard.sv(116) @ 8355000: uvm_test_top.env.scoreboard [SB_DETECT] DETECTION #62 @ cycle=836 | history[7:0]=01010111 | din=1
UVM_INFO /home/danhht/workspace/uvm-1011-detector/sim/../tb/scoreboard.sv(116) @ 8575000: uvm_test_top.env.scoreboard [SB_DETECT] DETECTION #63 @ cycle=858 | history[7:0]=10010110 | din=0
UVM_INFO /home/danhht/workspace/uvm-1011-detector/sim/../tb/scoreboard.sv(116) @ 8645000: uvm_test_top.env.scoreboard [SB_DETECT] DETECTION #64 @ cycle=865 | history[7:0]=01010110 | din=0
UVM_INFO /home/danhht/workspace/uvm-1011-detector/sim/../tb/scoreboard.sv(116) @ 8765000: uvm_test_top.env.scoreboard [SB_DETECT] DETECTION #65 @ cycle=877 | history[7:0]=10010111 | din=1
UVM_INFO /home/danhht/workspace/uvm-1011-detector/sim/../tb/scoreboard.sv(116) @ 8915000: uvm_test_top.env.scoreboard [SB_DETECT] DETECTION #66 @ cycle=892 | history[7:0]=00110111 | din=1
UVM_INFO /home/danhht/workspace/uvm-1011-detector/sim/../tb/scoreboard.sv(116) @ 9135000: uvm_test_top.env.scoreboard [SB_DETECT] DETECTION #67 @ cycle=914 | history[7:0]=11010111 | din=1
UVM_INFO /home/danhht/workspace/uvm-1011-detector/sim/../tb/scoreboard.sv(116) @ 9395000: uvm_test_top.env.scoreboard [SB_DETECT] DETECTION #68 @ cycle=940 | history[7:0]=00110110 | din=0
UVM_INFO /home/danhht/workspace/uvm-1011-detector/sim/../tb/scoreboard.sv(116) @ 9455000: uvm_test_top.env.scoreboard [SB_DETECT] DETECTION #69 @ cycle=946 | history[7:0]=10010110 | din=0
UVM_INFO /home/danhht/workspace/uvm-1011-detector/sim/../tb/scoreboard.sv(116) @ 9485000: uvm_test_top.env.scoreboard [SB_DETECT] DETECTION #70 @ cycle=949 | history[7:0]=10110111 | din=1
UVM_INFO /home/danhht/workspace/uvm-1011-detector/sim/../tb/scoreboard.sv(116) @ 9595000: uvm_test_top.env.scoreboard [SB_DETECT] DETECTION #71 @ cycle=960 | history[7:0]=00010110 | din=0
UVM_INFO /home/danhht/workspace/uvm-1011-detector/sim/../tb/scoreboard.sv(116) @ 9705000: uvm_test_top.env.scoreboard [SB_DETECT] DETECTION #72 @ cycle=971 | history[7:0]=01010110 | din=0
UVM_INFO /home/danhht/workspace/uvm-1011-detector/sim/../tb/scoreboard.sv(116) @ 9765000: uvm_test_top.env.scoreboard [SB_DETECT] DETECTION #73 @ cycle=977 | history[7:0]=10010111 | din=1
UVM_INFO /home/danhht/workspace/uvm-1011-detector/sim/../tb/scoreboard.sv(116) @ 9985000: uvm_test_top.env.scoreboard [SB_DETECT] DETECTION #74 @ cycle=999 | history[7:0]=01010110 | din=0
UVM_INFO /home/danhht/workspace/uvm-1011-detector/sim/../tb/scoreboard.sv(116) @ 10055000: uvm_test_top.env.scoreboard [SB_DETECT] DETECTION #75 @ cycle=1006 | history[7:0]=00110110 | din=0
UVM_INFO /home/danhht/workspace/uvm-1011-detector/sim/../tb/scoreboard.sv(116) @ 10085000: uvm_test_top.env.scoreboard [SB_DETECT] DETECTION #76 @ cycle=1009 | history[7:0]=10110111 | din=1
UVM_INFO /home/danhht/workspace/uvm-1011-detector/sim/../tb/scoreboard.sv(116) @ 10345000: uvm_test_top.env.scoreboard [SB_DETECT] DETECTION #77 @ cycle=1035 | history[7:0]=00110110 | din=0
UVM_INFO /home/danhht/workspace/uvm-1011-detector/sim/../tb/scoreboard.sv(116) @ 10505000: uvm_test_top.env.scoreboard [SB_DETECT] DETECTION #78 @ cycle=1051 | history[7:0]=00010110 | din=0
UVM_INFO /home/danhht/workspace/uvm-1011-detector/sim/../tb/scoreboard.sv(116) @ 10645000: uvm_test_top.env.scoreboard [SB_DETECT] DETECTION #79 @ cycle=1065 | history[7:0]=01110111 | din=1
UVM_INFO /home/danhht/workspace/uvm-1011-detector/sim/../tb/scoreboard.sv(116) @ 10785000: uvm_test_top.env.scoreboard [SB_DETECT] DETECTION #80 @ cycle=1079 | history[7:0]=11010111 | din=1
UVM_INFO /home/danhht/workspace/uvm-1011-detector/sim/../tb/scoreboard.sv(116) @ 11195000: uvm_test_top.env.scoreboard [SB_DETECT] DETECTION #81 @ cycle=1120 | history[7:0]=11110111 | din=1
UVM_INFO /home/danhht/workspace/uvm-1011-detector/sim/../tb/scoreboard.sv(116) @ 11265000: uvm_test_top.env.scoreboard [SB_DETECT] DETECTION #82 @ cycle=1127 | history[7:0]=10010110 | din=0
UVM_INFO /home/danhht/workspace/uvm-1011-detector/sim/../tb/scoreboard.sv(116) @ 11345000: uvm_test_top.env.scoreboard [SB_DETECT] DETECTION #83 @ cycle=1135 | history[7:0]=10010111 | din=1
UVM_INFO /home/danhht/workspace/uvm-1011-detector/sim/../tb/scoreboard.sv(116) @ 11405000: uvm_test_top.env.scoreboard [SB_DETECT] DETECTION #84 @ cycle=1141 | history[7:0]=11110110 | din=0
UVM_INFO /home/danhht/workspace/uvm-1011-detector/sim/../tb/scoreboard.sv(116) @ 11655000: uvm_test_top.env.scoreboard [SB_DETECT] DETECTION #85 @ cycle=1166 | history[7:0]=11110110 | din=0
UVM_INFO /home/danhht/workspace/uvm-1011-detector/sim/../tb/scoreboard.sv(116) @ 12215000: uvm_test_top.env.scoreboard [SB_DETECT] DETECTION #86 @ cycle=1222 | history[7:0]=11110111 | din=1
UVM_INFO /home/danhht/workspace/uvm-1011-detector/sim/../tb/scoreboard.sv(116) @ 12415000: uvm_test_top.env.scoreboard [SB_DETECT] DETECTION #87 @ cycle=1242 | history[7:0]=11110111 | din=1
UVM_INFO /home/danhht/workspace/uvm-1011-detector/sim/../tb/scoreboard.sv(116) @ 12675000: uvm_test_top.env.scoreboard [SB_DETECT] DETECTION #88 @ cycle=1268 | history[7:0]=00010111 | din=1
UVM_INFO /home/danhht/workspace/uvm-1011-detector/sim/../tb/scoreboard.sv(116) @ 12785000: uvm_test_top.env.scoreboard [SB_DETECT] DETECTION #89 @ cycle=1279 | history[7:0]=01010111 | din=1
UVM_INFO /home/danhht/workspace/uvm-1011-detector/sim/../tb/scoreboard.sv(116) @ 12985000: uvm_test_top.env.scoreboard [SB_DETECT] DETECTION #90 @ cycle=1299 | history[7:0]=01110111 | din=1
UVM_INFO /home/danhht/workspace/uvm-1011-detector/sim/../tb/scoreboard.sv(116) @ 13165000: uvm_test_top.env.scoreboard [SB_DETECT] DETECTION #91 @ cycle=1317 | history[7:0]=11010111 | din=1
UVM_INFO /home/danhht/workspace/uvm-1011-detector/sim/../tb/scoreboard.sv(116) @ 13315000: uvm_test_top.env.scoreboard [SB_DETECT] DETECTION #92 @ cycle=1332 | history[7:0]=10010111 | din=1
UVM_INFO /home/danhht/workspace/uvm-1011-detector/sim/../tb/scoreboard.sv(116) @ 13475000: uvm_test_top.env.scoreboard [SB_DETECT] DETECTION #93 @ cycle=1348 | history[7:0]=00010111 | din=1
UVM_INFO /home/danhht/workspace/uvm-1011-detector/sim/../tb/scoreboard.sv(116) @ 13545000: uvm_test_top.env.scoreboard [SB_DETECT] DETECTION #94 @ cycle=1355 | history[7:0]=10010111 | din=1
UVM_INFO /home/danhht/workspace/uvm-1011-detector/sim/../tb/scoreboard.sv(116) @ 13585000: uvm_test_top.env.scoreboard [SB_DETECT] DETECTION #95 @ cycle=1359 | history[7:0]=01110110 | din=0
UVM_INFO /home/danhht/workspace/uvm-1011-detector/sim/../tb/scoreboard.sv(116) @ 13615000: uvm_test_top.env.scoreboard [SB_DETECT] DETECTION #96 @ cycle=1362 | history[7:0]=10110110 | din=0
UVM_INFO /home/danhht/workspace/uvm-1011-detector/sim/../tb/scoreboard.sv(116) @ 13875000: uvm_test_top.env.scoreboard [SB_DETECT] DETECTION #97 @ cycle=1388 | history[7:0]=00110111 | din=1
UVM_INFO /home/danhht/workspace/uvm-1011-detector/sim/../tb/scoreboard.sv(116) @ 14235000: uvm_test_top.env.scoreboard [SB_DETECT] DETECTION #98 @ cycle=1424 | history[7:0]=00110110 | din=0
UVM_INFO /home/danhht/workspace/uvm-1011-detector/sim/../tb/scoreboard.sv(116) @ 14265000: uvm_test_top.env.scoreboard [SB_DETECT] DETECTION #99 @ cycle=1427 | history[7:0]=10110110 | din=0
UVM_INFO /home/danhht/workspace/uvm-1011-detector/sim/../tb/scoreboard.sv(116) @ 14715000: uvm_test_top.env.scoreboard [SB_DETECT] DETECTION #100 @ cycle=1472 | history[7:0]=10010110 | din=0
UVM_INFO /home/danhht/workspace/uvm-1011-detector/sim/../tb/scoreboard.sv(116) @ 14745000: uvm_test_top.env.scoreboard [SB_DETECT] DETECTION #101 @ cycle=1475 | history[7:0]=10110111 | din=1
UVM_INFO /home/danhht/workspace/uvm-1011-detector/sim/../tb/scoreboard.sv(116) @ 14915000: uvm_test_top.env.scoreboard [SB_DETECT] DETECTION #102 @ cycle=1492 | history[7:0]=01110110 | din=0
UVM_INFO /home/danhht/workspace/uvm-1011-detector/sim/../tb/scoreboard.sv(116) @ 15135000: uvm_test_top.env.scoreboard [SB_DETECT] DETECTION #103 @ cycle=1514 | history[7:0]=01010111 | din=1
UVM_INFO /home/danhht/workspace/uvm-1011-detector/sim/../tb/scoreboard.sv(116) @ 15295000: uvm_test_top.env.scoreboard [SB_DETECT] DETECTION #104 @ cycle=1530 | history[7:0]=00010110 | din=0
UVM_INFO /home/danhht/workspace/uvm-1011-detector/sim/../tb/scoreboard.sv(116) @ 15425000: uvm_test_top.env.scoreboard [SB_DETECT] DETECTION #105 @ cycle=1543 | history[7:0]=11010111 | din=1
UVM_INFO /home/danhht/workspace/uvm-1011-detector/sim/../tb/scoreboard.sv(116) @ 15485000: uvm_test_top.env.scoreboard [SB_DETECT] DETECTION #106 @ cycle=1549 | history[7:0]=11110110 | din=0
UVM_INFO /home/danhht/workspace/uvm-1011-detector/sim/../tb/scoreboard.sv(116) @ 15605000: uvm_test_top.env.scoreboard [SB_DETECT] DETECTION #107 @ cycle=1561 | history[7:0]=00110111 | din=1
UVM_INFO /home/danhht/workspace/uvm-1011-detector/sim/../tb/scoreboard.sv(116) @ 15665000: uvm_test_top.env.scoreboard [SB_DETECT] DETECTION #108 @ cycle=1567 | history[7:0]=11110111 | din=1
UVM_INFO /home/danhht/workspace/uvm-1011-detector/sim/../tb/scoreboard.sv(116) @ 15765000: uvm_test_top.env.scoreboard [SB_DETECT] DETECTION #109 @ cycle=1577 | history[7:0]=01110111 | din=1
UVM_INFO /home/danhht/workspace/uvm-1011-detector/sim/../tb/scoreboard.sv(116) @ 15855000: uvm_test_top.env.scoreboard [SB_DETECT] DETECTION #110 @ cycle=1586 | history[7:0]=01010111 | din=1
UVM_INFO /home/danhht/workspace/uvm-1011-detector/sim/../tb/scoreboard.sv(116) @ 16265000: uvm_test_top.env.scoreboard [SB_DETECT] DETECTION #111 @ cycle=1627 | history[7:0]=00110111 | din=1
UVM_INFO /home/danhht/workspace/uvm-1011-detector/sim/../tb/scoreboard.sv(116) @ 16325000: uvm_test_top.env.scoreboard [SB_DETECT] DETECTION #112 @ cycle=1633 | history[7:0]=11010110 | din=0
UVM_INFO /home/danhht/workspace/uvm-1011-detector/sim/../tb/scoreboard.sv(116) @ 16885000: uvm_test_top.env.scoreboard [SB_DETECT] DETECTION #113 @ cycle=1689 | history[7:0]=01110111 | din=1
UVM_INFO /home/danhht/workspace/uvm-1011-detector/sim/../tb/scoreboard.sv(116) @ 17175000: uvm_test_top.env.scoreboard [SB_DETECT] DETECTION #114 @ cycle=1718 | history[7:0]=00010110 | din=0
UVM_INFO /home/danhht/workspace/uvm-1011-detector/sim/../tb/scoreboard.sv(116) @ 17205000: uvm_test_top.env.scoreboard [SB_DETECT] DETECTION #115 @ cycle=1721 | history[7:0]=10110110 | din=0
UVM_INFO /home/danhht/workspace/uvm-1011-detector/sim/../tb/scoreboard.sv(116) @ 17345000: uvm_test_top.env.scoreboard [SB_DETECT] DETECTION #116 @ cycle=1735 | history[7:0]=01110111 | din=1
UVM_INFO /home/danhht/workspace/uvm-1011-detector/sim/../tb/scoreboard.sv(116) @ 17525000: uvm_test_top.env.scoreboard [SB_DETECT] DETECTION #117 @ cycle=1753 | history[7:0]=00110111 | din=1
UVM_INFO /home/danhht/workspace/uvm-1011-detector/sim/../tb/scoreboard.sv(116) @ 17945000: uvm_test_top.env.scoreboard [SB_DETECT] DETECTION #118 @ cycle=1795 | history[7:0]=10010110 | din=0
UVM_INFO /home/danhht/workspace/uvm-1011-detector/sim/../tb/scoreboard.sv(116) @ 18005000: uvm_test_top.env.scoreboard [SB_DETECT] DETECTION #119 @ cycle=1801 | history[7:0]=10010110 | din=0
UVM_INFO /home/danhht/workspace/uvm-1011-detector/sim/../tb/scoreboard.sv(116) @ 18055000: uvm_test_top.env.scoreboard [SB_DETECT] DETECTION #120 @ cycle=1806 | history[7:0]=11010111 | din=1
UVM_INFO /home/danhht/workspace/uvm-1011-detector/sim/../tb/scoreboard.sv(116) @ 18295000: uvm_test_top.env.scoreboard [SB_DETECT] DETECTION #121 @ cycle=1830 | history[7:0]=00110111 | din=1
